<?xml version="1.0" encoding="iso-8859-1"?>
<!-- Generator: Adobe Illustrator 23.0.1, SVG Export Plug-In . SVG Version: 6.00 Build 0)  -->
<svg version="1.1" id="Layer_1" xmlns="http://www.w3.org/2000/svg" xmlns:xlink="http://www.w3.org/1999/xlink" x="0px" y="0px"
	 viewBox="0 0 168.218 61.056" style="enable-background:new 0 0 168.218 61.056;" xml:space="preserve">
<g>
	<path d="M28.938,61.056H0.285l-0.19-0.329L24.14,28.136h-2.662h-3.325c-1.141,0-2.227,0.009-3.256,0.025
		c-1.028,0.016-1.846,0.039-2.446,0.069c-1.204,0.064-2.29,0.298-3.255,0.704c-0.968,0.406-1.847,0.922-2.638,1.546
		c-0.382,0.313-0.849,0.744-1.403,1.29c-0.555,0.547-1.115,1.149-1.685,1.804c-0.57,0.657-1.117,1.32-1.64,1.993
		c-0.522,0.669-0.958,1.288-1.307,1.851L0,37.229l3.469-9.985c0.443,0.037,1.252,0.063,2.423,0.082
		c1.172,0.018,2.566,0.037,4.182,0.055c1.615,0.017,3.356,0.026,5.227,0.026h5.655h5.274h4.275l0.145,0.283L6.652,60.21
		c1.586,0.031,3.011,0.048,4.277,0.048h3.85c0.537,0,1.227-0.017,2.064-0.048c0.841-0.03,1.719-0.093,2.638-0.188
		c2.567-0.279,4.872-1.294,6.915-3.045c2.044-1.749,3.856-3.969,5.44-6.657l0.522,0.186L28.938,61.056z"/>
	<path d="M55.412,61.056v-0.469c0.093,0,0.323-0.032,0.688-0.092c0.363-0.063,0.745-0.171,1.141-0.33
		c0.395-0.156,0.745-0.375,1.045-0.655c0.302-0.281,0.451-0.642,0.451-1.078c0-0.282-0.087-0.742-0.26-1.385
		c-0.173-0.64-0.421-1.419-0.737-2.342c-0.317-0.921-0.681-1.945-1.093-3.071c-0.412-1.126-0.856-2.297-1.329-3.518H42.676
		c-0.476,1.189-0.934,2.323-1.377,3.4c-0.444,1.078-0.889,2.164-1.332,3.256c-0.666,1.691-0.997,2.876-0.997,3.565
		c0,0.405,0.126,0.743,0.38,1.009c0.254,0.267,0.579,0.485,0.974,0.655c0.396,0.17,0.825,0.297,1.284,0.376
		c0.458,0.078,0.894,0.148,1.307,0.21v0.469H32.792V60.54c0.823-0.095,1.528-0.31,2.115-0.658c0.585-0.342,0.925-0.578,1.021-0.702
		c0.222-0.221,0.588-0.734,1.094-1.549c0.507-0.811,1.124-2.014,1.854-3.609c0.665-1.47,1.41-3.143,2.233-5.019
		c0.823-1.873,1.67-3.805,2.541-5.792c0.871-1.985,1.735-3.986,2.59-6.002c0.856-2.016,1.664-3.899,2.426-5.65l-0.477-1.033
		c0.569-0.25,1.086-0.547,1.544-0.892c0.458-0.342,0.864-0.701,1.212-1.076c0.348-0.376,0.642-0.735,0.878-1.08
		c0.237-0.343,0.422-0.624,0.549-0.845h0.378c0.983,2.596,1.917,5.058,2.805,7.388c0.887,2.329,1.733,4.571,2.544,6.728
		c0.806,2.159,1.589,4.245,2.35,6.262c0.761,2.016,1.519,4.008,2.281,5.979c0.348,0.969,0.673,1.773,0.975,2.414
		c0.3,0.641,0.641,1.367,1.023,2.181c0.063,0.126,0.204,0.342,0.426,0.657c0.223,0.314,0.515,0.633,0.879,0.96
		c0.366,0.329,0.815,0.619,1.356,0.866c0.537,0.255,1.171,0.393,1.902,0.424v0.563H55.412z M49.186,32.636
		c-0.191,0.409-0.467,1.05-0.831,1.925c-0.364,0.876-0.815,1.936-1.354,3.188c-0.539,1.252-1.133,2.666-1.781,4.244
		c-0.649,1.58-1.355,3.293-2.114,5.138h11.831c-0.538-1.408-1.084-2.817-1.64-4.222c-0.552-1.408-1.093-2.76-1.615-4.057
		c-0.522-1.297-0.997-2.486-1.427-3.565C49.826,34.208,49.472,33.325,49.186,32.636"/>
	<path d="M96.072,61.056v-0.469c1.174-0.092,2.156-0.304,2.947-0.633c0.791-0.328,1.313-0.695,1.567-1.101
		c0.063-0.091,0.119-0.28,0.167-0.56c0.047-0.28,0.087-0.609,0.119-0.985c0.03-0.375,0.053-0.765,0.069-1.172
		c0.015-0.406,0.023-0.796,0.023-1.171c0.03-1.032,0.042-2.094,0.042-3.187v-3.139v-2.626v-1.639H82.28V54.45
		c0,0.906,0.018,1.78,0.048,2.624c0.033,0.844,0.176,1.437,0.43,1.779c0.378,0.531,0.917,0.94,1.615,1.219
		c0.696,0.28,1.377,0.453,2.043,0.515v0.469H72.395v-0.469c0.791-0.125,1.549-0.335,2.277-0.633
		c0.729-0.295,1.284-0.661,1.663-1.101c0.126-0.156,0.23-0.413,0.312-0.771c0.075-0.36,0.14-0.773,0.188-1.244
		c0.048-0.467,0.09-0.975,0.123-1.522c0.029-0.545,0.044-1.069,0.044-1.568c0-0.438,0.008-1.03,0.021-1.781
		c0.016-0.75,0.027-1.568,0.043-2.459c0.012-0.891,0.021-1.804,0.021-2.743v-2.716v-9.133v-1.688c0-0.563-0.024-1.084-0.072-1.567
		c-0.047-0.486-0.118-0.922-0.212-1.313c-0.095-0.389-0.238-0.695-0.427-0.913c-0.445-0.53-0.991-0.913-1.642-1.147
		c-0.648-0.235-1.388-0.398-2.211-0.491v-0.47h14.166v0.47c-0.444,0.062-0.92,0.155-1.425,0.28c-0.508,0.125-0.968,0.321-1.38,0.586
		c-0.411,0.265-0.758,0.633-1.044,1.102c-0.285,0.468-0.442,1.063-0.475,1.78c-0.026,1.094-0.048,2.275-0.063,3.539
		c-0.012,1.265-0.021,2.478-0.021,3.633v2.998v1.736h18.728v-2.718v-2.438v-2.391c0-0.813-0.012-1.733-0.042-2.766
		c-0.032-0.593-0.067-1.209-0.119-1.851c-0.046-0.642-0.196-1.163-0.447-1.57c-0.573-0.845-1.226-1.366-1.95-1.57
		c-0.73-0.203-1.457-0.32-2.187-0.35v-0.47h14.31v0.47c-0.762,0.093-1.505,0.304-2.234,0.632c-0.73,0.327-1.269,0.803-1.616,1.427
		c-0.128,0.219-0.223,0.524-0.286,0.913c-0.063,0.392-0.109,0.831-0.14,1.313c-0.033,0.484-0.048,0.977-0.048,1.475v1.452v8.011
		v3.139v2.717c0,0.877,0.006,1.779,0.017,2.717c0.017,0.938,0.022,1.967,0.022,3.092c0,0.908,0.027,1.741,0.072,2.507
		c0.051,0.766,0.167,1.288,0.354,1.57c0.412,0.622,0.967,1.06,1.666,1.31c0.695,0.252,1.454,0.423,2.281,0.515v0.469H96.072z"/>
	<path d="M166.46,61.056h-31.02v-0.469c0.794-0.125,2.091-0.328,2.867-0.609c0.777-0.281,1.385-0.67,1.828-1.171
		c0.161-0.187,0.296-0.461,0.403-0.817c0.112-0.361,0.198-0.774,0.263-1.243c0.063-0.468,0.119-0.962,0.167-1.474
		c0.048-0.518,0.072-1.026,0.072-1.524c0-0.439,0.006-1.031,0.02-1.781c0.014-0.747,0.027-1.569,0.042-2.46
		c0.013-0.89,0.018-1.803,0.018-2.741v-2.717v-9.087v-1.641c0-0.561-0.021-1.084-0.071-1.568c-0.045-0.484-0.117-0.915-0.21-1.288
		c-0.095-0.374-0.242-0.672-0.429-0.89c-0.445-0.53-1.04-0.937-1.783-1.219c-0.744-0.28-1.529-0.467-2.354-0.56v-0.47h15.158v0.47
		c-0.412,0.059-0.903,0.155-1.472,0.28c-0.571,0.125-1.108,0.327-1.616,0.61c-0.507,0.279-0.944,0.677-1.308,1.192
		c-0.364,0.519-0.562,1.196-0.593,2.04c-0.028,1.094-0.05,2.092-0.061,2.997c-0.015,0.907-0.026,1.796-0.041,2.671
		c-0.017,0.873-0.022,1.78-0.022,2.719v3.136v2.903v2.485c0,0.812,0.006,1.647,0.022,2.505c0.015,0.86,0.02,1.819,0.02,2.882
		c0.03,1,0.072,1.951,0.12,2.857c0.047,0.906,0.211,1.577,0.496,2.013c0.128,0.158,0.381,0.312,0.764,0.47
		c0.38,0.156,0.836,0.288,1.377,0.397c0.536,0.111,1.125,0.205,1.759,0.283c0.633,0.077,1.269,0.115,1.898,0.115
		c0.254,0,0.658-0.007,1.21-0.022c0.557-0.016,1.167-0.046,1.833-0.093c0.664-0.048,1.349-0.116,2.042-0.211
		c0.697-0.093,1.315-0.219,1.855-0.375c1.267-0.343,2.321-0.798,3.159-1.358c0.84-0.562,1.562-1.209,2.162-1.945
		c0.604-0.733,1.107-1.53,1.52-2.388c0.412-0.861,0.807-1.759,1.19-2.694l0.472,0.14L166.46,61.056z"/>
	<path style="fill:#E21F26;" d="M124.919,35.44c0,0,0-3.948,4.677-7.87c5.929-4.966,12.334-10.025,4.631-27.57
		c8.178,25.762-10.986,27.981-10.986,27.981c-1.895,0.491-6.78-0.667-6.78-0.667c5.545,4.231,5.282,8.126,5.282,8.126v0.916
		c0,0-0.03,14.183-0.03,18.936c0,4.754-8.851,5.259-8.851,5.259v0.485h19.66v-0.485c-8.332,0-7.594-5.259-7.594-5.259v-19.08
		L124.919,35.44z"/>
</g>
</svg>
